{
    "/js/app.js": "/js/app.js?id=fe80284fc20687899063",
    "/css/app.css": "/css/app.css?id=3771c5780b2fb01d3294",
    "/css/global.css": "/css/global.css?id=1c694e47a8a698659e93",
    "/css/member.css": "/css/member.css?id=a586d4d494dcabc74522",
    "/css/access.css": "/css/access.css?id=9ba93b18c5e009793592",
    "/js/global.js": "/js/global.js?id=9f11cc94f057a5f2a84d"
}
